EESchema Schematic File Version 2
LIBS:power
LIBS:device
LIBS:transistors
LIBS:conn
LIBS:linear
LIBS:regul
LIBS:74xx
LIBS:cmos4000
LIBS:adc-dac
LIBS:memory
LIBS:xilinx
LIBS:special
LIBS:microcontrollers
LIBS:dsp
LIBS:microchip
LIBS:analog_switches
LIBS:motorola
LIBS:texas
LIBS:intel
LIBS:audio
LIBS:interface
LIBS:digital-audio
LIBS:philips
LIBS:display
LIBS:cypress
LIBS:siliconi
LIBS:opto
LIBS:atmel
LIBS:contrib
LIBS:valves
LIBS:ec_sensor-cache
EELAYER 27 0
EELAYER END
$Descr A4 11693 8268
encoding utf-8
Sheet 1 1
Title ""
Date "1 jun 2015"
Rev ""
Comp ""
Comment1 ""
Comment2 ""
Comment3 ""
Comment4 ""
$EndDescr
$Comp
L R R1
U 1 1 556882A8
P 3800 1850
F 0 "R1" V 3880 1850 40  0000 C CNN
F 1 "1M" V 3807 1851 40  0000 C CNN
F 2 "~" V 3730 1850 30  0000 C CNN
F 3 "~" H 3800 1850 30  0000 C CNN
	1    3800 1850
	1    0    0    -1  
$EndComp
$Comp
L R R3
U 1 1 556882B7
P 4550 1850
F 0 "R3" V 4630 1850 40  0000 C CNN
F 1 "1M" V 4557 1851 40  0000 C CNN
F 2 "~" V 4480 1850 30  0000 C CNN
F 3 "~" H 4550 1850 30  0000 C CNN
	1    4550 1850
	1    0    0    -1  
$EndComp
$Comp
L R R2
U 1 1 556882C6
P 3800 2650
F 0 "R2" V 3880 2650 40  0000 C CNN
F 1 "1M" V 3807 2651 40  0000 C CNN
F 2 "~" V 3730 2650 30  0000 C CNN
F 3 "~" H 3800 2650 30  0000 C CNN
	1    3800 2650
	1    0    0    -1  
$EndComp
$Comp
L R R5
U 1 1 556882D5
P 6400 2850
F 0 "R5" V 6480 2850 40  0000 C CNN
F 1 "1k" V 6407 2851 40  0000 C CNN
F 2 "~" V 6330 2850 30  0000 C CNN
F 3 "~" H 6400 2850 30  0000 C CNN
	1    6400 2850
	1    0    0    -1  
$EndComp
$Comp
L R R6
U 1 1 556882E4
P 6400 3650
F 0 "R6" V 6480 3650 40  0000 C CNN
F 1 "3k" V 6407 3651 40  0000 C CNN
F 2 "~" V 6330 3650 30  0000 C CNN
F 3 "~" H 6400 3650 30  0000 C CNN
	1    6400 3650
	1    0    0    -1  
$EndComp
$Comp
L LM358N U2
U 1 1 55688321
P 5100 3250
F 0 "U2" H 5050 3450 60  0000 L CNN
F 1 "LM358N" H 5050 3000 60  0000 L CNN
F 2 "" H 5100 3250 60  0000 C CNN
F 3 "" H 5100 3250 60  0000 C CNN
	1    5100 3250
	1    0    0    -1  
$EndComp
$Comp
L LM7815CT U3
U 1 1 55688368
P 5850 1650
F 0 "U3" H 5650 1850 40  0000 C CNN
F 1 "LM7815CT" H 5850 1850 40  0000 L CNN
F 2 "TO-220" H 5850 1750 30  0000 C CIN
F 3 "" H 5850 1650 60  0000 C CNN
	1    5850 1650
	1    0    0    -1  
$EndComp
$Comp
L 78L05 U1
U 1 1 5568839F
P 2600 2150
F 0 "U1" H 2750 1954 60  0000 C CNN
F 1 "78L05" H 2600 2350 60  0000 C CNN
F 2 "" H 2600 2150 60  0000 C CNN
F 3 "" H 2600 2150 60  0000 C CNN
	1    2600 2150
	1    0    0    -1  
$EndComp
Wire Wire Line
	3000 2100 3000 1600
Wire Wire Line
	3000 1600 4550 1600
Connection ~ 3800 1600
Wire Wire Line
	3800 2100 3800 2400
Wire Wire Line
	2600 3800 5000 3800
Wire Wire Line
	3800 2250 4250 2250
Wire Wire Line
	4250 2250 4250 3350
Wire Wire Line
	4250 3350 4600 3350
Connection ~ 3800 2250
Wire Wire Line
	4550 2100 4550 2500
Wire Wire Line
	3800 2900 5550 2900
Connection ~ 4150 3800
Wire Wire Line
	4550 2250 4350 2250
Wire Wire Line
	4350 2250 4350 3150
Wire Wire Line
	4350 3150 4600 3150
Connection ~ 4550 2250
Wire Wire Line
	5000 2850 5000 2300
Wire Wire Line
	5000 2300 6400 2300
Wire Wire Line
	6400 2300 6400 1600
Wire Wire Line
	6400 1600 6250 1600
Wire Wire Line
	4600 3350 4600 3750
Wire Wire Line
	4600 3750 5600 3750
Wire Wire Line
	5600 3750 5600 3250
Wire Wire Line
	5550 2900 5550 2600
Wire Wire Line
	5550 2600 6800 2600
Connection ~ 4550 2900
Wire Wire Line
	5600 3250 6050 3250
Wire Wire Line
	6050 3250 6050 3900
Wire Wire Line
	6050 3900 6400 3900
Wire Wire Line
	6400 3100 6400 3400
Wire Wire Line
	2600 2400 2600 3800
Wire Wire Line
	5850 1900 5850 2600
Connection ~ 5850 2600
Wire Wire Line
	5200 1600 5450 1600
Wire Wire Line
	1750 2100 2200 2100
Connection ~ 4150 2900
Wire Wire Line
	4150 3800 4150 2900
Wire Wire Line
	5000 3800 5000 3650
$Comp
L CONN_2 P1
U 1 1 556BCB8D
P 4900 2600
F 0 "P1" V 4850 2600 40  0000 C CNN
F 1 "CONN_2" V 4950 2600 40  0000 C CNN
F 2 "" H 4900 2600 60  0000 C CNN
F 3 "" H 4900 2600 60  0000 C CNN
	1    4900 2600
	1    0    0    -1  
$EndComp
Wire Wire Line
	4550 2700 4550 2900
$Comp
L CONN_2 P2
U 1 1 556BCBEE
P 7150 2800
F 0 "P2" V 7100 2800 40  0000 C CNN
F 1 "CONN_2" V 7200 2800 40  0000 C CNN
F 2 "" H 7150 2800 60  0000 C CNN
F 3 "" H 7150 2800 60  0000 C CNN
	1    7150 2800
	1    0    0    -1  
$EndComp
Wire Wire Line
	6800 2600 6800 2700
Connection ~ 6400 2600
Wire Wire Line
	6400 3100 6800 3100
Wire Wire Line
	6800 3100 6800 2900
$Comp
L CONN_2 P3
U 1 1 556C7943
P 1300 1400
F 0 "P3" V 1250 1400 40  0000 C CNN
F 1 "CONN_2" V 1350 1400 40  0000 C CNN
F 2 "" H 1300 1400 60  0000 C CNN
F 3 "" H 1300 1400 60  0000 C CNN
	1    1300 1400
	-1   0    0    1   
$EndComp
Wire Wire Line
	1650 1500 5200 1500
Wire Wire Line
	1750 1500 1750 2100
Wire Wire Line
	5200 1500 5200 1600
Connection ~ 1750 1500
Wire Wire Line
	3400 1300 3400 2750
Wire Wire Line
	3400 2750 2600 2750
Connection ~ 2600 2750
Connection ~ 3400 1300
Wire Wire Line
	1650 1300 5350 1300
Wire Wire Line
	5350 1300 5350 2900
Connection ~ 5350 2900
$EndSCHEMATC
