(kicad_pcb (version 3) (host pcbnew "(25-Oct-2014 BZR 4029)-stable")

  (general
    (links 20)
    (no_connects 0)
    (area 24.079999 19.4564 49.343733 47.4091)
    (thickness 1.6)
    (drawings 5)
    (tracks 39)
    (zones 0)
    (modules 11)
    (nets 8)
  )

  (page A3)
  (layers
    (15 F.Cu signal)
    (0 B.Cu signal hide)
    (16 B.Adhes user)
    (17 F.Adhes user)
    (18 B.Paste user)
    (19 F.Paste user)
    (20 B.SilkS user)
    (21 F.SilkS user)
    (22 B.Mask user)
    (23 F.Mask user)
    (24 Dwgs.User user)
    (25 Cmts.User user)
    (26 Eco1.User user)
    (27 Eco2.User user)
    (28 Edge.Cuts user)
  )

  (setup
    (last_trace_width 0.254)
    (trace_clearance 0.254)
    (zone_clearance 0.508)
    (zone_45_only no)
    (trace_min 0.254)
    (segment_width 0.2)
    (edge_width 0.1)
    (via_size 0.889)
    (via_drill 0.635)
    (via_min_size 0.889)
    (via_min_drill 0.508)
    (uvia_size 0.508)
    (uvia_drill 0.127)
    (uvias_allowed no)
    (uvia_min_size 0.508)
    (uvia_min_drill 0.127)
    (pcb_text_width 0.3)
    (pcb_text_size 1.5 1.5)
    (mod_edge_width 0.15)
    (mod_text_size 1 1)
    (mod_text_width 0.15)
    (pad_size 1.397 1.397)
    (pad_drill 0.8128)
    (pad_to_mask_clearance 0)
    (aux_axis_origin 0 0)
    (visible_elements FFFFFFBF)
    (pcbplotparams
      (layerselection 284196865)
      (usegerberextensions true)
      (excludeedgelayer true)
      (linewidth 0.150000)
      (plotframeref false)
      (viasonmask false)
      (mode 1)
      (useauxorigin false)
      (hpglpennumber 1)
      (hpglpenspeed 20)
      (hpglpendiameter 15)
      (hpglpenoverlay 2)
      (psnegative false)
      (psa4output false)
      (plotreference true)
      (plotvalue true)
      (plotothertext true)
      (plotinvisibletext false)
      (padsonsilk false)
      (subtractmaskfromsilk false)
      (outputformat 1)
      (mirror false)
      (drillshape 0)
      (scaleselection 1)
      (outputdirectory ""))
  )

  (net 0 "")
  (net 1 N-000001)
  (net 2 N-000002)
  (net 3 N-000003)
  (net 4 N-000004)
  (net 5 N-000005)
  (net 6 N-000006)
  (net 7 N-000007)

  (net_class Default "This is the default net class."
    (clearance 0.254)
    (trace_width 0.254)
    (via_dia 0.889)
    (via_drill 0.635)
    (uvia_dia 0.508)
    (uvia_drill 0.127)
    (add_net "")
    (add_net N-000001)
    (add_net N-000002)
    (add_net N-000003)
    (add_net N-000004)
    (add_net N-000005)
    (add_net N-000006)
    (add_net N-000007)
  )

  (module TO92 (layer F.Cu) (tedit 5575B42A) (tstamp 556C7DD5)
    (at 28.575 25.4)
    (descr "Transistor TO92 brochage type BC237")
    (tags "TR TO92")
    (path /5568839F)
    (fp_text reference U1 (at -1.27 3.81) (layer F.SilkS)
      (effects (font (size 1.016 1.016) (thickness 0.2032)))
    )
    (fp_text value 78L05 (at -1.27 -5.08) (layer F.SilkS) hide
      (effects (font (size 1.016 1.016) (thickness 0.2032)))
    )
    (fp_line (start -1.27 2.54) (end 2.54 -1.27) (layer F.SilkS) (width 0.3048))
    (fp_line (start 2.54 -1.27) (end 2.54 -2.54) (layer F.SilkS) (width 0.3048))
    (fp_line (start 2.54 -2.54) (end 1.27 -3.81) (layer F.SilkS) (width 0.3048))
    (fp_line (start 1.27 -3.81) (end -1.27 -3.81) (layer F.SilkS) (width 0.3048))
    (fp_line (start -1.27 -3.81) (end -3.81 -1.27) (layer F.SilkS) (width 0.3048))
    (fp_line (start -3.81 -1.27) (end -3.81 1.27) (layer F.SilkS) (width 0.3048))
    (fp_line (start -3.81 1.27) (end -2.54 2.54) (layer F.SilkS) (width 0.3048))
    (fp_line (start -2.54 2.54) (end -1.27 2.54) (layer F.SilkS) (width 0.3048))
    (pad 1 thru_hole rect (at 1.27 -1.27) (size 1.397 1.397) (drill 0.8128)
      (layers *.Cu *.Mask F.SilkS)
      (net 1 N-000001)
    )
    (pad 2 thru_hole circle (at -1.27 -1.27) (size 1.397 1.397) (drill 0.8128)
      (layers *.Cu *.Mask F.SilkS)
      (net 6 N-000006)
    )
    (pad 3 thru_hole circle (at -1.27 1.27) (size 1.397 1.397) (drill 0.8128)
      (layers *.Cu *.Mask F.SilkS)
      (net 7 N-000007)
    )
    (model discret/to98.wrl
      (at (xyz 0 0 0))
      (scale (xyz 1 1 1))
      (rotate (xyz 0 0 0))
    )
  )

  (module TO-220_Neutral123_PadsOnly (layer F.Cu) (tedit 5575B40B) (tstamp 556C7DDC)
    (at 41.91 22.86)
    (path /55688368)
    (fp_text reference U3 (at 5.334 0.508) (layer F.SilkS)
      (effects (font (size 1.524 1.524) (thickness 0.3048)))
    )
    (fp_text value LM7815CT (at -0.20066 3.2512) (layer F.SilkS) hide
      (effects (font (size 1.524 1.524) (thickness 0.3048)))
    )
    (pad 2 thru_hole oval (at 0 0 90) (size 2.49936 1.50114) (drill 1.00076)
      (layers *.Cu *.Mask F.SilkS)
      (net 6 N-000006)
    )
    (pad 1 thru_hole oval (at -2.54 0 90) (size 2.49936 1.50114) (drill 1.00076)
      (layers *.Cu *.Mask F.SilkS)
      (net 1 N-000001)
    )
    (pad 3 thru_hole oval (at 2.54 0 90) (size 2.49936 1.50114) (drill 1.00076)
      (layers *.Cu *.Mask F.SilkS)
      (net 3 N-000003)
    )
    (model Transistor_TO-220_Wings3d_RevB_03Sep2012/TO220-vert_RevB_Faktor03937_03Sep2012.wrl
      (at (xyz 0 0 0))
      (scale (xyz 0.3937 0.3937 0.3937))
      (rotate (xyz 0 0 0))
    )
  )

  (module R1 (layer F.Cu) (tedit 5575B423) (tstamp 556C7DE4)
    (at 32.385 28.575)
    (descr "Resistance verticale")
    (tags R)
    (path /556882A8)
    (autoplace_cost90 10)
    (autoplace_cost180 10)
    (fp_text reference R1 (at 0.127 -2.159) (layer F.SilkS)
      (effects (font (size 1.397 1.27) (thickness 0.2032)))
    )
    (fp_text value 1M (at -1.143 2.54) (layer F.SilkS) hide
      (effects (font (size 1.397 1.27) (thickness 0.2032)))
    )
    (fp_line (start -1.27 0) (end 1.27 0) (layer F.SilkS) (width 0.381))
    (fp_circle (center -1.27 0) (end -0.635 1.27) (layer F.SilkS) (width 0.381))
    (pad 1 thru_hole circle (at -1.27 0) (size 1.397 1.397) (drill 0.8128)
      (layers *.Cu *.Mask F.SilkS)
      (net 7 N-000007)
    )
    (pad 2 thru_hole circle (at 1.27 0) (size 1.397 1.397) (drill 0.8128)
      (layers *.Cu *.Mask F.SilkS)
      (net 2 N-000002)
    )
    (model discret/verti_resistor.wrl
      (at (xyz 0 0 0))
      (scale (xyz 1 1 1))
      (rotate (xyz 0 0 0))
    )
  )

  (module R1 (layer F.Cu) (tedit 5575B41D) (tstamp 556C7DEC)
    (at 32.385 32.385)
    (descr "Resistance verticale")
    (tags R)
    (path /556882B7)
    (autoplace_cost90 10)
    (autoplace_cost180 10)
    (fp_text reference R3 (at 3.683 0.127) (layer F.SilkS)
      (effects (font (size 1.397 1.27) (thickness 0.2032)))
    )
    (fp_text value 1M (at -1.143 2.54) (layer F.SilkS) hide
      (effects (font (size 1.397 1.27) (thickness 0.2032)))
    )
    (fp_line (start -1.27 0) (end 1.27 0) (layer F.SilkS) (width 0.381))
    (fp_circle (center -1.27 0) (end -0.635 1.27) (layer F.SilkS) (width 0.381))
    (pad 1 thru_hole circle (at -1.27 0) (size 1.397 1.397) (drill 0.8128)
      (layers *.Cu *.Mask F.SilkS)
      (net 7 N-000007)
    )
    (pad 2 thru_hole circle (at 1.27 0) (size 1.397 1.397) (drill 0.8128)
      (layers *.Cu *.Mask F.SilkS)
      (net 5 N-000005)
    )
    (model discret/verti_resistor.wrl
      (at (xyz 0 0 0))
      (scale (xyz 1 1 1))
      (rotate (xyz 0 0 0))
    )
  )

  (module R1 (layer F.Cu) (tedit 5575B411) (tstamp 556C7DF4)
    (at 40.64 41.91 90)
    (descr "Resistance verticale")
    (tags R)
    (path /556882C6)
    (autoplace_cost90 10)
    (autoplace_cost180 10)
    (fp_text reference R2 (at -0.254 2.54 90) (layer F.SilkS)
      (effects (font (size 1.397 1.27) (thickness 0.2032)))
    )
    (fp_text value 1M (at -1.143 2.54 90) (layer F.SilkS) hide
      (effects (font (size 1.397 1.27) (thickness 0.2032)))
    )
    (fp_line (start -1.27 0) (end 1.27 0) (layer F.SilkS) (width 0.381))
    (fp_circle (center -1.27 0) (end -0.635 1.27) (layer F.SilkS) (width 0.381))
    (pad 1 thru_hole circle (at -1.27 0 90) (size 1.397 1.397) (drill 0.8128)
      (layers *.Cu *.Mask F.SilkS)
      (net 2 N-000002)
    )
    (pad 2 thru_hole circle (at 1.27 0 90) (size 1.397 1.397) (drill 0.8128)
      (layers *.Cu *.Mask F.SilkS)
      (net 6 N-000006)
    )
    (model discret/verti_resistor.wrl
      (at (xyz 0 0 0))
      (scale (xyz 1 1 1))
      (rotate (xyz 0 0 0))
    )
  )

  (module R1 (layer F.Cu) (tedit 5575B419) (tstamp 556C7DFC)
    (at 27.305 43.815)
    (descr "Resistance verticale")
    (tags R)
    (path /556882D5)
    (autoplace_cost90 10)
    (autoplace_cost180 10)
    (fp_text reference R5 (at 4.191 -0.127) (layer F.SilkS)
      (effects (font (size 1.397 1.27) (thickness 0.2032)))
    )
    (fp_text value 1k (at -1.143 2.54) (layer F.SilkS) hide
      (effects (font (size 1.397 1.27) (thickness 0.2032)))
    )
    (fp_line (start -1.27 0) (end 1.27 0) (layer F.SilkS) (width 0.381))
    (fp_circle (center -1.27 0) (end -0.635 1.27) (layer F.SilkS) (width 0.381))
    (pad 1 thru_hole circle (at -1.27 0) (size 1.397 1.397) (drill 0.8128)
      (layers *.Cu *.Mask F.SilkS)
      (net 6 N-000006)
    )
    (pad 2 thru_hole circle (at 1.27 0) (size 1.397 1.397) (drill 0.8128)
      (layers *.Cu *.Mask F.SilkS)
      (net 4 N-000004)
    )
    (model discret/verti_resistor.wrl
      (at (xyz 0 0 0))
      (scale (xyz 1 1 1))
      (rotate (xyz 0 0 0))
    )
  )

  (module R1 (layer F.Cu) (tedit 5575B416) (tstamp 556C7E04)
    (at 27.305 40.005)
    (descr "Resistance verticale")
    (tags R)
    (path /556882E4)
    (autoplace_cost90 10)
    (autoplace_cost180 10)
    (fp_text reference R6 (at 4.191 0.127) (layer F.SilkS)
      (effects (font (size 1.397 1.27) (thickness 0.2032)))
    )
    (fp_text value 3k (at -1.143 2.54) (layer F.SilkS) hide
      (effects (font (size 1.397 1.27) (thickness 0.2032)))
    )
    (fp_line (start -1.27 0) (end 1.27 0) (layer F.SilkS) (width 0.381))
    (fp_circle (center -1.27 0) (end -0.635 1.27) (layer F.SilkS) (width 0.381))
    (pad 1 thru_hole circle (at -1.27 0) (size 1.397 1.397) (drill 0.8128)
      (layers *.Cu *.Mask F.SilkS)
      (net 4 N-000004)
    )
    (pad 2 thru_hole circle (at 1.27 0) (size 1.397 1.397) (drill 0.8128)
      (layers *.Cu *.Mask F.SilkS)
      (net 2 N-000002)
    )
    (model discret/verti_resistor.wrl
      (at (xyz 0 0 0))
      (scale (xyz 1 1 1))
      (rotate (xyz 0 0 0))
    )
  )

  (module PIN_ARRAY_2X1 (layer F.Cu) (tedit 4565C520) (tstamp 556C7E0E)
    (at 46.355 42.545 270)
    (descr "Connecteurs 2 pins")
    (tags "CONN DEV")
    (path /556BCB8D)
    (fp_text reference P1 (at 0 -1.905 270) (layer F.SilkS)
      (effects (font (size 0.762 0.762) (thickness 0.1524)))
    )
    (fp_text value CONN_2 (at 0 -1.905 270) (layer F.SilkS) hide
      (effects (font (size 0.762 0.762) (thickness 0.1524)))
    )
    (fp_line (start -2.54 1.27) (end -2.54 -1.27) (layer F.SilkS) (width 0.1524))
    (fp_line (start -2.54 -1.27) (end 2.54 -1.27) (layer F.SilkS) (width 0.1524))
    (fp_line (start 2.54 -1.27) (end 2.54 1.27) (layer F.SilkS) (width 0.1524))
    (fp_line (start 2.54 1.27) (end -2.54 1.27) (layer F.SilkS) (width 0.1524))
    (pad 1 thru_hole rect (at -1.27 0 270) (size 1.524 1.524) (drill 1.016)
      (layers *.Cu *.Mask F.SilkS)
      (net 5 N-000005)
    )
    (pad 2 thru_hole circle (at 1.27 0 270) (size 1.524 1.524) (drill 1.016)
      (layers *.Cu *.Mask F.SilkS)
      (net 6 N-000006)
    )
    (model pin_array/pins_array_2x1.wrl
      (at (xyz 0 0 0))
      (scale (xyz 1 1 1))
      (rotate (xyz 0 0 0))
    )
  )

  (module PIN_ARRAY_2X1 (layer F.Cu) (tedit 4565C520) (tstamp 556C7E18)
    (at 27.305 36.195)
    (descr "Connecteurs 2 pins")
    (tags "CONN DEV")
    (path /556BCBEE)
    (fp_text reference P2 (at 0 -1.905) (layer F.SilkS)
      (effects (font (size 0.762 0.762) (thickness 0.1524)))
    )
    (fp_text value CONN_2 (at 0 -1.905) (layer F.SilkS) hide
      (effects (font (size 0.762 0.762) (thickness 0.1524)))
    )
    (fp_line (start -2.54 1.27) (end -2.54 -1.27) (layer F.SilkS) (width 0.1524))
    (fp_line (start -2.54 -1.27) (end 2.54 -1.27) (layer F.SilkS) (width 0.1524))
    (fp_line (start 2.54 -1.27) (end 2.54 1.27) (layer F.SilkS) (width 0.1524))
    (fp_line (start 2.54 1.27) (end -2.54 1.27) (layer F.SilkS) (width 0.1524))
    (pad 1 thru_hole rect (at -1.27 0) (size 1.524 1.524) (drill 1.016)
      (layers *.Cu *.Mask F.SilkS)
      (net 6 N-000006)
    )
    (pad 2 thru_hole circle (at 1.27 0) (size 1.524 1.524) (drill 1.016)
      (layers *.Cu *.Mask F.SilkS)
      (net 4 N-000004)
    )
    (model pin_array/pins_array_2x1.wrl
      (at (xyz 0 0 0))
      (scale (xyz 1 1 1))
      (rotate (xyz 0 0 0))
    )
  )

  (module PIN_ARRAY_2X1 (layer F.Cu) (tedit 5575B408) (tstamp 556C7E22)
    (at 34.925 22.86)
    (descr "Connecteurs 2 pins")
    (tags "CONN DEV")
    (path /556C7943)
    (fp_text reference P3 (at 0.127 2.032) (layer F.SilkS)
      (effects (font (size 0.762 0.762) (thickness 0.1524)))
    )
    (fp_text value CONN_2 (at 0 -1.905) (layer F.SilkS) hide
      (effects (font (size 0.762 0.762) (thickness 0.1524)))
    )
    (fp_line (start -2.54 1.27) (end -2.54 -1.27) (layer F.SilkS) (width 0.1524))
    (fp_line (start -2.54 -1.27) (end 2.54 -1.27) (layer F.SilkS) (width 0.1524))
    (fp_line (start 2.54 -1.27) (end 2.54 1.27) (layer F.SilkS) (width 0.1524))
    (fp_line (start 2.54 1.27) (end -2.54 1.27) (layer F.SilkS) (width 0.1524))
    (pad 1 thru_hole rect (at -1.27 0) (size 1.524 1.524) (drill 1.016)
      (layers *.Cu *.Mask F.SilkS)
      (net 1 N-000001)
    )
    (pad 2 thru_hole circle (at 1.27 0) (size 1.524 1.524) (drill 1.016)
      (layers *.Cu *.Mask F.SilkS)
      (net 6 N-000006)
    )
    (model pin_array/pins_array_2x1.wrl
      (at (xyz 0 0 0))
      (scale (xyz 1 1 1))
      (rotate (xyz 0 0 0))
    )
  )

  (module DIP-8__300 (layer F.Cu) (tedit 5575B42E) (tstamp 556C7E35)
    (at 43.18 30.48 270)
    (descr "8 pins DIL package, round pads")
    (tags DIL)
    (path /55688321)
    (fp_text reference U2 (at 6.096 0 360) (layer F.SilkS)
      (effects (font (size 1.27 1.143) (thickness 0.2032)))
    )
    (fp_text value LM358N (at 0 0 270) (layer F.SilkS) hide
      (effects (font (size 1.27 1.016) (thickness 0.2032)))
    )
    (fp_line (start -5.08 -1.27) (end -3.81 -1.27) (layer F.SilkS) (width 0.254))
    (fp_line (start -3.81 -1.27) (end -3.81 1.27) (layer F.SilkS) (width 0.254))
    (fp_line (start -3.81 1.27) (end -5.08 1.27) (layer F.SilkS) (width 0.254))
    (fp_line (start -5.08 -2.54) (end 5.08 -2.54) (layer F.SilkS) (width 0.254))
    (fp_line (start 5.08 -2.54) (end 5.08 2.54) (layer F.SilkS) (width 0.254))
    (fp_line (start 5.08 2.54) (end -5.08 2.54) (layer F.SilkS) (width 0.254))
    (fp_line (start -5.08 2.54) (end -5.08 -2.54) (layer F.SilkS) (width 0.254))
    (pad 1 thru_hole rect (at -3.81 3.81 270) (size 1.397 1.397) (drill 0.8128)
      (layers *.Cu *.Mask F.SilkS)
      (net 2 N-000002)
    )
    (pad 2 thru_hole circle (at -1.27 3.81 270) (size 1.397 1.397) (drill 0.8128)
      (layers *.Cu *.Mask F.SilkS)
      (net 2 N-000002)
    )
    (pad 3 thru_hole circle (at 1.27 3.81 270) (size 1.397 1.397) (drill 0.8128)
      (layers *.Cu *.Mask F.SilkS)
      (net 5 N-000005)
    )
    (pad 4 thru_hole circle (at 3.81 3.81 270) (size 1.397 1.397) (drill 0.8128)
      (layers *.Cu *.Mask F.SilkS)
      (net 6 N-000006)
    )
    (pad 5 thru_hole circle (at 3.81 -3.81 270) (size 1.397 1.397) (drill 0.8128)
      (layers *.Cu *.Mask F.SilkS)
    )
    (pad 6 thru_hole circle (at 1.27 -3.81 270) (size 1.397 1.397) (drill 0.8128)
      (layers *.Cu *.Mask F.SilkS)
    )
    (pad 7 thru_hole circle (at -1.27 -3.81 270) (size 1.397 1.397) (drill 0.8128)
      (layers *.Cu *.Mask F.SilkS)
    )
    (pad 8 thru_hole circle (at -3.81 -3.81 270) (size 1.397 1.397) (drill 0.8128)
      (layers *.Cu *.Mask F.SilkS)
      (net 3 N-000003)
    )
    (model dil/dil_8.wrl
      (at (xyz 0 0 0))
      (scale (xyz 1 1 1))
      (rotate (xyz 0 0 0))
    )
  )

  (gr_line (start 24.13 20.955) (end 24.765 20.955) (angle 90) (layer Edge.Cuts) (width 0.1))
  (gr_line (start 24.13 45.72) (end 24.13 20.955) (angle 90) (layer Edge.Cuts) (width 0.1))
  (gr_line (start 48.895 45.72) (end 24.13 45.72) (angle 90) (layer Edge.Cuts) (width 0.1))
  (gr_line (start 48.895 20.955) (end 48.895 45.72) (angle 90) (layer Edge.Cuts) (width 0.1))
  (gr_line (start 24.13 20.955) (end 48.895 20.955) (angle 90) (layer Edge.Cuts) (width 0.1))

  (segment (start 33.655 22.86) (end 31.115 22.86) (width 0.254) (layer F.Cu) (net 1))
  (segment (start 31.115 22.86) (end 29.845 24.13) (width 0.254) (layer F.Cu) (net 1) (tstamp 556E4669))
  (segment (start 39.37 22.86) (end 36.83 25.4) (width 0.254) (layer F.Cu) (net 1))
  (segment (start 36.195 25.4) (end 33.655 22.86) (width 0.254) (layer F.Cu) (net 1) (tstamp 556E4666))
  (segment (start 36.83 25.4) (end 36.195 25.4) (width 0.254) (layer F.Cu) (net 1) (tstamp 556E4665))
  (segment (start 40.64 43.18) (end 36.068 38.608) (width 0.254) (layer F.Cu) (net 2))
  (segment (start 36.068 28.448) (end 36.068 28.575) (width 0.254) (layer F.Cu) (net 2) (tstamp 556E4758))
  (via (at 36.068 28.448) (size 0.889) (layers F.Cu B.Cu) (net 2))
  (segment (start 36.068 38.608) (end 36.068 28.448) (width 0.254) (layer B.Cu) (net 2) (tstamp 556E4754))
  (via (at 36.068 38.608) (size 0.889) (layers F.Cu B.Cu) (net 2))
  (segment (start 40.64 43.18) (end 31.75 43.18) (width 0.254) (layer F.Cu) (net 2))
  (segment (start 31.75 43.18) (end 28.575 40.005) (width 0.254) (layer F.Cu) (net 2) (tstamp 556E46E1))
  (segment (start 39.37 26.67) (end 39.37 29.21) (width 0.254) (layer F.Cu) (net 2))
  (segment (start 33.655 28.575) (end 36.068 28.575) (width 0.254) (layer F.Cu) (net 2))
  (segment (start 36.068 28.575) (end 38.735 28.575) (width 0.254) (layer F.Cu) (net 2) (tstamp 556E475A))
  (segment (start 38.735 28.575) (end 39.37 29.21) (width 0.254) (layer F.Cu) (net 2) (tstamp 556E4673))
  (segment (start 44.45 22.86) (end 45.72 22.86) (width 0.254) (layer F.Cu) (net 3))
  (segment (start 46.99 24.13) (end 46.99 26.67) (width 0.254) (layer F.Cu) (net 3) (tstamp 556E4660))
  (segment (start 45.72 22.86) (end 46.99 24.13) (width 0.254) (layer F.Cu) (net 3) (tstamp 556E465E))
  (segment (start 26.035 40.005) (end 26.035 41.275) (width 0.254) (layer F.Cu) (net 4))
  (segment (start 26.035 41.275) (end 28.575 43.815) (width 0.254) (layer F.Cu) (net 4) (tstamp 556E46D5))
  (segment (start 28.575 36.195) (end 28.575 37.465) (width 0.254) (layer F.Cu) (net 4))
  (segment (start 28.575 37.465) (end 26.035 40.005) (width 0.254) (layer F.Cu) (net 4) (tstamp 556E46D0))
  (segment (start 46.355 41.275) (end 41.148 36.068) (width 0.254) (layer F.Cu) (net 5))
  (segment (start 35.56 32.512) (end 35.56 32.385) (width 0.254) (layer F.Cu) (net 5) (tstamp 556E473D))
  (segment (start 35.433 32.385) (end 35.56 32.512) (width 0.254) (layer F.Cu) (net 5) (tstamp 556E4735))
  (segment (start 37.084 34.036) (end 35.433 32.385) (width 0.254) (layer F.Cu) (net 5) (tstamp 556E4732))
  (segment (start 39.116 36.068) (end 37.084 34.036) (width 0.254) (layer F.Cu) (net 5) (tstamp 556E472D))
  (segment (start 41.148 36.068) (end 39.116 36.068) (width 0.254) (layer F.Cu) (net 5) (tstamp 556E472A))
  (segment (start 33.655 32.385) (end 35.56 32.385) (width 0.254) (layer F.Cu) (net 5))
  (segment (start 35.56 32.385) (end 38.735 32.385) (width 0.254) (layer F.Cu) (net 5) (tstamp 556E473E))
  (segment (start 38.735 32.385) (end 39.37 31.75) (width 0.254) (layer F.Cu) (net 5) (tstamp 556E4682))
  (segment (start 40.64 40.64) (end 43.18 40.64) (width 0.254) (layer F.Cu) (net 6))
  (segment (start 43.18 40.64) (end 46.355 43.815) (width 0.254) (layer F.Cu) (net 6) (tstamp 556E46DC))
  (segment (start 41.91 22.86) (end 41.91 31.75) (width 0.254) (layer F.Cu) (net 6))
  (segment (start 41.91 31.75) (end 39.37 34.29) (width 0.254) (layer F.Cu) (net 6) (tstamp 556E465A))
  (segment (start 31.115 28.575) (end 31.115 32.385) (width 0.254) (layer F.Cu) (net 7))
  (segment (start 27.305 26.67) (end 29.21 26.67) (width 0.254) (layer F.Cu) (net 7))
  (segment (start 29.21 26.67) (end 31.115 28.575) (width 0.254) (layer F.Cu) (net 7) (tstamp 556E466D))

  (zone (net 6) (net_name N-000006) (layer B.Cu) (tstamp 556D5F09) (hatch edge 0.508)
    (connect_pads (clearance 0.508))
    (min_thickness 0.254)
    (fill (arc_segments 16) (thermal_gap 0.508) (thermal_bridge_width 0.508))
    (polygon
      (pts
        (xy 48.26 45.085) (xy 24.765 45.085) (xy 24.765 21.59) (xy 48.26 21.59)
      )
    )
    (filled_polygon
      (pts
        (xy 48.133 44.958) (xy 47.764143 44.958) (xy 47.764143 44.022696) (xy 47.75211 43.782293) (xy 47.75211 41.911245)
        (xy 47.75211 40.387245) (xy 47.655641 40.153771) (xy 47.477168 39.974987) (xy 47.243864 39.878111) (xy 46.991245 39.87789)
        (xy 45.467245 39.87789) (xy 45.233771 39.974359) (xy 45.054987 40.152832) (xy 44.958111 40.386136) (xy 44.95789 40.638755)
        (xy 44.95789 42.162755) (xy 45.054359 42.396229) (xy 45.232832 42.575013) (xy 45.466136 42.671889) (xy 45.601083 42.672007)
        (xy 45.554393 42.834788) (xy 46.355 43.635395) (xy 47.155607 42.834788) (xy 47.108946 42.67211) (xy 47.242755 42.67211)
        (xy 47.476229 42.575641) (xy 47.655013 42.397168) (xy 47.751889 42.163864) (xy 47.75211 41.911245) (xy 47.75211 43.782293)
        (xy 47.73636 43.467631) (xy 47.577396 43.083858) (xy 47.335212 43.014393) (xy 46.534605 43.815) (xy 47.335212 44.615607)
        (xy 47.577396 44.546142) (xy 47.764143 44.022696) (xy 47.764143 44.958) (xy 47.108914 44.958) (xy 47.155607 44.795212)
        (xy 46.355 43.994605) (xy 46.175395 44.17421) (xy 46.175395 43.815) (xy 45.374788 43.014393) (xy 45.132604 43.083858)
        (xy 44.945857 43.607304) (xy 44.97364 44.162369) (xy 45.132604 44.546142) (xy 45.374788 44.615607) (xy 46.175395 43.815)
        (xy 46.175395 44.17421) (xy 45.554393 44.795212) (xy 45.601085 44.958) (xy 41.985924 44.958) (xy 41.985924 40.83252)
        (xy 41.957146 40.302802) (xy 41.809798 39.947072) (xy 41.574186 39.885419) (xy 41.394581 40.065024) (xy 41.394581 39.705814)
        (xy 41.332928 39.470202) (xy 40.83252 39.294076) (xy 40.715924 39.30041) (xy 40.715924 34.48252) (xy 40.70373 34.258064)
        (xy 40.70373 31.485914) (xy 40.501145 30.99562) (xy 40.126353 30.620174) (xy 39.788551 30.479906) (xy 40.12438 30.341145)
        (xy 40.499826 29.966353) (xy 40.703267 29.476413) (xy 40.70373 28.945914) (xy 40.501145 28.45562) (xy 40.126353 28.080174)
        (xy 39.941966 28.00361) (xy 40.194255 28.00361) (xy 40.427729 27.907141) (xy 40.606513 27.728668) (xy 40.703389 27.495364)
        (xy 40.70361 27.242745) (xy 40.70361 25.845745) (xy 40.607141 25.612271) (xy 40.428668 25.433487) (xy 40.195364 25.336611)
        (xy 39.942745 25.33639) (xy 38.545745 25.33639) (xy 38.312271 25.432859) (xy 38.133487 25.611332) (xy 38.036611 25.844636)
        (xy 38.03639 26.097255) (xy 38.03639 27.494255) (xy 38.132859 27.727729) (xy 38.311332 27.906513) (xy 38.544636 28.003389)
        (xy 38.797255 28.00361) (xy 38.797727 28.00361) (xy 38.61562 28.078855) (xy 38.240174 28.453647) (xy 38.036733 28.943587)
        (xy 38.03627 29.474086) (xy 38.238855 29.96438) (xy 38.613647 30.339826) (xy 38.951448 30.480093) (xy 38.61562 30.618855)
        (xy 38.240174 30.993647) (xy 38.036733 31.483587) (xy 38.03627 32.014086) (xy 38.238855 32.50438) (xy 38.613647 32.879826)
        (xy 38.935122 33.013314) (xy 38.677072 33.120202) (xy 38.615419 33.355814) (xy 39.37 34.110395) (xy 40.124581 33.355814)
        (xy 40.062928 33.120202) (xy 39.783683 33.021917) (xy 40.12438 32.881145) (xy 40.499826 32.506353) (xy 40.703267 32.016413)
        (xy 40.70373 31.485914) (xy 40.70373 34.258064) (xy 40.687146 33.952802) (xy 40.539798 33.597072) (xy 40.304186 33.535419)
        (xy 39.549605 34.29) (xy 40.304186 35.044581) (xy 40.539798 34.982928) (xy 40.715924 34.48252) (xy 40.715924 39.30041)
        (xy 40.302802 39.322854) (xy 40.124581 39.396675) (xy 40.124581 35.224186) (xy 39.37 34.469605) (xy 39.190395 34.64921)
        (xy 39.190395 34.29) (xy 38.435814 33.535419) (xy 38.200202 33.597072) (xy 38.024076 34.09748) (xy 38.052854 34.627198)
        (xy 38.200202 34.982928) (xy 38.435814 35.044581) (xy 39.190395 34.29) (xy 39.190395 34.64921) (xy 38.615419 35.224186)
        (xy 38.677072 35.459798) (xy 39.17748 35.635924) (xy 39.707198 35.607146) (xy 40.062928 35.459798) (xy 40.124581 35.224186)
        (xy 40.124581 39.396675) (xy 39.947072 39.470202) (xy 39.885419 39.705814) (xy 40.64 40.460395) (xy 41.394581 39.705814)
        (xy 41.394581 40.065024) (xy 40.819605 40.64) (xy 41.574186 41.394581) (xy 41.809798 41.332928) (xy 41.985924 40.83252)
        (xy 41.985924 44.958) (xy 41.97373 44.958) (xy 41.97373 42.915914) (xy 41.771145 42.42562) (xy 41.396353 42.050174)
        (xy 41.074877 41.916685) (xy 41.332928 41.809798) (xy 41.394581 41.574186) (xy 40.64 40.819605) (xy 40.460395 40.99921)
        (xy 40.460395 40.64) (xy 39.705814 39.885419) (xy 39.470202 39.947072) (xy 39.294076 40.44748) (xy 39.322854 40.977198)
        (xy 39.470202 41.332928) (xy 39.705814 41.394581) (xy 40.460395 40.64) (xy 40.460395 40.99921) (xy 39.885419 41.574186)
        (xy 39.947072 41.809798) (xy 40.226316 41.908082) (xy 39.88562 42.048855) (xy 39.510174 42.423647) (xy 39.306733 42.913587)
        (xy 39.30627 43.444086) (xy 39.508855 43.93438) (xy 39.883647 44.309826) (xy 40.373587 44.513267) (xy 40.904086 44.51373)
        (xy 41.39438 44.311145) (xy 41.769826 43.936353) (xy 41.973267 43.446413) (xy 41.97373 42.915914) (xy 41.97373 44.958)
        (xy 37.604143 44.958) (xy 37.604143 23.067696) (xy 37.57636 22.512631) (xy 37.417396 22.128858) (xy 37.175212 22.059393)
        (xy 36.374605 22.86) (xy 37.175212 23.660607) (xy 37.417396 23.591142) (xy 37.604143 23.067696) (xy 37.604143 44.958)
        (xy 37.147687 44.958) (xy 37.147687 38.394216) (xy 36.983689 37.997311) (xy 36.83 37.843353) (xy 36.83 29.212641)
        (xy 36.982622 29.060286) (xy 37.147313 28.663668) (xy 37.147687 28.234216) (xy 36.995607 27.866154) (xy 36.995607 23.840212)
        (xy 36.195 23.039605) (xy 35.394393 23.840212) (xy 35.463858 24.082396) (xy 35.987304 24.269143) (xy 36.542369 24.24136)
        (xy 36.926142 24.082396) (xy 36.995607 23.840212) (xy 36.995607 27.866154) (xy 36.983689 27.837311) (xy 36.680286 27.533378)
        (xy 36.283668 27.368687) (xy 35.854216 27.368313) (xy 35.457311 27.532311) (xy 35.153378 27.835714) (xy 34.988687 28.232332)
        (xy 34.988618 28.310644) (xy 34.786145 27.82062) (xy 34.411353 27.445174) (xy 33.921413 27.241733) (xy 33.390914 27.24127)
        (xy 32.90062 27.443855) (xy 32.525174 27.818647) (xy 32.384906 28.156448) (xy 32.246145 27.82062) (xy 31.871353 27.445174)
        (xy 31.381413 27.241733) (xy 31.17861 27.241556) (xy 31.17861 24.702745) (xy 31.17861 23.305745) (xy 31.082141 23.072271)
        (xy 30.903668 22.893487) (xy 30.670364 22.796611) (xy 30.417745 22.79639) (xy 29.020745 22.79639) (xy 28.787271 22.892859)
        (xy 28.608487 23.071332) (xy 28.511611 23.304636) (xy 28.511417 23.52548) (xy 28.474798 23.437072) (xy 28.239186 23.375419)
        (xy 28.059581 23.555024) (xy 28.059581 23.195814) (xy 27.997928 22.960202) (xy 27.49752 22.784076) (xy 26.967802 22.812854)
        (xy 26.612072 22.960202) (xy 26.550419 23.195814) (xy 27.305 23.950395) (xy 28.059581 23.195814) (xy 28.059581 23.555024)
        (xy 27.484605 24.13) (xy 28.239186 24.884581) (xy 28.474798 24.822928) (xy 28.51139 24.718963) (xy 28.51139 24.954255)
        (xy 28.607859 25.187729) (xy 28.786332 25.366513) (xy 29.019636 25.463389) (xy 29.272255 25.46361) (xy 30.669255 25.46361)
        (xy 30.902729 25.367141) (xy 31.081513 25.188668) (xy 31.178389 24.955364) (xy 31.17861 24.702745) (xy 31.17861 27.241556)
        (xy 30.850914 27.24127) (xy 30.36062 27.443855) (xy 29.985174 27.818647) (xy 29.781733 28.308587) (xy 29.78127 28.839086)
        (xy 29.983855 29.32938) (xy 30.358647 29.704826) (xy 30.848587 29.908267) (xy 31.379086 29.90873) (xy 31.86938 29.706145)
        (xy 32.244826 29.331353) (xy 32.385093 28.993551) (xy 32.523855 29.32938) (xy 32.898647 29.704826) (xy 33.388587 29.908267)
        (xy 33.919086 29.90873) (xy 34.40938 29.706145) (xy 34.784826 29.331353) (xy 34.988267 28.841413) (xy 34.988423 28.662051)
        (xy 35.152311 29.058689) (xy 35.306 29.212646) (xy 35.306 37.843358) (xy 35.153378 37.995714) (xy 34.98873 38.392228)
        (xy 34.98873 32.120914) (xy 34.786145 31.63062) (xy 34.411353 31.255174) (xy 33.921413 31.051733) (xy 33.390914 31.05127)
        (xy 32.90062 31.253855) (xy 32.525174 31.628647) (xy 32.384906 31.966448) (xy 32.246145 31.63062) (xy 31.871353 31.255174)
        (xy 31.381413 31.051733) (xy 30.850914 31.05127) (xy 30.36062 31.253855) (xy 29.985174 31.628647) (xy 29.781733 32.118587)
        (xy 29.78127 32.649086) (xy 29.983855 33.13938) (xy 30.358647 33.514826) (xy 30.848587 33.718267) (xy 31.379086 33.71873)
        (xy 31.86938 33.516145) (xy 32.244826 33.141353) (xy 32.385093 32.803551) (xy 32.523855 33.13938) (xy 32.898647 33.514826)
        (xy 33.388587 33.718267) (xy 33.919086 33.71873) (xy 34.40938 33.516145) (xy 34.784826 33.141353) (xy 34.988267 32.651413)
        (xy 34.98873 32.120914) (xy 34.98873 38.392228) (xy 34.988687 38.392332) (xy 34.988313 38.821784) (xy 35.152311 39.218689)
        (xy 35.455714 39.522622) (xy 35.852332 39.687313) (xy 36.281784 39.687687) (xy 36.678689 39.523689) (xy 36.982622 39.220286)
        (xy 37.147313 38.823668) (xy 37.147687 38.394216) (xy 37.147687 44.958) (xy 29.972241 44.958) (xy 29.972241 35.918339)
        (xy 29.760009 35.404697) (xy 29.36737 35.011372) (xy 28.854099 34.798244) (xy 28.63873 34.798056) (xy 28.63873 26.405914)
        (xy 28.436145 25.91562) (xy 28.061353 25.540174) (xy 27.739877 25.406685) (xy 27.997928 25.299798) (xy 28.059581 25.064186)
        (xy 27.305 24.309605) (xy 27.125395 24.48921) (xy 27.125395 24.13) (xy 26.370814 23.375419) (xy 26.135202 23.437072)
        (xy 25.959076 23.93748) (xy 25.987854 24.467198) (xy 26.135202 24.822928) (xy 26.370814 24.884581) (xy 27.125395 24.13)
        (xy 27.125395 24.48921) (xy 26.550419 25.064186) (xy 26.612072 25.299798) (xy 26.891316 25.398082) (xy 26.55062 25.538855)
        (xy 26.175174 25.913647) (xy 25.971733 26.403587) (xy 25.97127 26.934086) (xy 26.173855 27.42438) (xy 26.548647 27.799826)
        (xy 27.038587 28.003267) (xy 27.569086 28.00373) (xy 28.05938 27.801145) (xy 28.434826 27.426353) (xy 28.638267 26.936413)
        (xy 28.63873 26.405914) (xy 28.63873 34.798056) (xy 28.298339 34.797759) (xy 27.784697 35.009991) (xy 27.431937 35.362134)
        (xy 27.431889 35.306136) (xy 27.335013 35.072832) (xy 27.156229 34.894359) (xy 26.922755 34.79789) (xy 26.32075 34.798)
        (xy 26.162 34.95675) (xy 26.162 36.068) (xy 26.182 36.068) (xy 26.182 36.322) (xy 26.162 36.322)
        (xy 26.162 37.43325) (xy 26.32075 37.592) (xy 26.922755 37.59211) (xy 27.156229 37.495641) (xy 27.335013 37.317168)
        (xy 27.431889 37.083864) (xy 27.431938 37.027323) (xy 27.78263 37.378628) (xy 28.295901 37.591756) (xy 28.851661 37.592241)
        (xy 29.365303 37.380009) (xy 29.758628 36.98737) (xy 29.971756 36.474099) (xy 29.972241 35.918339) (xy 29.972241 44.958)
        (xy 29.300688 44.958) (xy 29.32938 44.946145) (xy 29.704826 44.571353) (xy 29.908267 44.081413) (xy 29.90873 43.550914)
        (xy 29.706145 43.06062) (xy 29.331353 42.685174) (xy 28.841413 42.481733) (xy 28.310914 42.48127) (xy 27.82062 42.683855)
        (xy 27.445174 43.058647) (xy 27.311685 43.380122) (xy 27.204798 43.122072) (xy 26.969186 43.060419) (xy 26.789581 43.240024)
        (xy 26.789581 42.880814) (xy 26.727928 42.645202) (xy 26.22752 42.469076) (xy 25.697802 42.497854) (xy 25.342072 42.645202)
        (xy 25.280419 42.880814) (xy 26.035 43.635395) (xy 26.789581 42.880814) (xy 26.789581 43.240024) (xy 26.214605 43.815)
        (xy 26.969186 44.569581) (xy 27.204798 44.507928) (xy 27.303082 44.228683) (xy 27.443855 44.56938) (xy 27.818647 44.944826)
        (xy 27.850373 44.958) (xy 26.73494 44.958) (xy 26.789581 44.749186) (xy 26.035 43.994605) (xy 25.280419 44.749186)
        (xy 25.335059 44.958) (xy 24.892 44.958) (xy 24.892 44.51494) (xy 25.100814 44.569581) (xy 25.855395 43.815)
        (xy 25.100814 43.060419) (xy 24.892 43.115059) (xy 24.892 40.730688) (xy 24.903855 40.75938) (xy 25.278647 41.134826)
        (xy 25.768587 41.338267) (xy 26.299086 41.33873) (xy 26.78938 41.136145) (xy 27.164826 40.761353) (xy 27.305093 40.423551)
        (xy 27.443855 40.75938) (xy 27.818647 41.134826) (xy 28.308587 41.338267) (xy 28.839086 41.33873) (xy 29.32938 41.136145)
        (xy 29.704826 40.761353) (xy 29.908267 40.271413) (xy 29.90873 39.740914) (xy 29.706145 39.25062) (xy 29.331353 38.875174)
        (xy 28.841413 38.671733) (xy 28.310914 38.67127) (xy 27.82062 38.873855) (xy 27.445174 39.248647) (xy 27.304906 39.586448)
        (xy 27.166145 39.25062) (xy 26.791353 38.875174) (xy 26.301413 38.671733) (xy 25.770914 38.67127) (xy 25.28062 38.873855)
        (xy 24.905174 39.248647) (xy 24.892 39.280373) (xy 24.892 37.473907) (xy 24.913771 37.495641) (xy 25.147245 37.59211)
        (xy 25.74925 37.592) (xy 25.908 37.43325) (xy 25.908 36.322) (xy 25.888 36.322) (xy 25.888 36.068)
        (xy 25.908 36.068) (xy 25.908 34.95675) (xy 25.74925 34.798) (xy 25.147245 34.79789) (xy 24.913771 34.894359)
        (xy 24.892 34.916092) (xy 24.892 21.717) (xy 32.375855 21.717) (xy 32.354987 21.737832) (xy 32.258111 21.971136)
        (xy 32.25789 22.223755) (xy 32.25789 23.747755) (xy 32.354359 23.981229) (xy 32.532832 24.160013) (xy 32.766136 24.256889)
        (xy 33.018755 24.25711) (xy 34.542755 24.25711) (xy 34.776229 24.160641) (xy 34.955013 23.982168) (xy 35.051889 23.748864)
        (xy 35.052007 23.613916) (xy 35.214788 23.660607) (xy 36.015395 22.86) (xy 35.214788 22.059393) (xy 35.05211 22.106053)
        (xy 35.05211 21.972245) (xy 34.955641 21.738771) (xy 34.933907 21.717) (xy 35.441085 21.717) (xy 35.394393 21.879788)
        (xy 36.195 22.680395) (xy 36.995607 21.879788) (xy 36.948914 21.717) (xy 38.14117 21.717) (xy 38.0899 21.793732)
        (xy 37.98443 22.323967) (xy 37.98443 23.396033) (xy 38.0899 23.926268) (xy 38.390254 24.375779) (xy 38.839765 24.676133)
        (xy 39.37 24.781603) (xy 39.900235 24.676133) (xy 40.349746 24.375779) (xy 40.6501 23.926268) (xy 40.651949 23.916967)
        (xy 40.678501 24.006677) (xy 41.020056 24.428658) (xy 41.497097 24.68781) (xy 41.568725 24.701993) (xy 41.783 24.579338)
        (xy 41.783 22.987) (xy 41.763 22.987) (xy 41.763 22.733) (xy 41.783 22.733) (xy 41.783 22.713)
        (xy 42.037 22.713) (xy 42.037 22.733) (xy 42.057 22.733) (xy 42.057 22.987) (xy 42.037 22.987)
        (xy 42.037 24.579338) (xy 42.251275 24.701993) (xy 42.322903 24.68781) (xy 42.799944 24.428658) (xy 43.141499 24.006677)
        (xy 43.16805 23.916967) (xy 43.1699 23.926268) (xy 43.470254 24.375779) (xy 43.919765 24.676133) (xy 44.45 24.781603)
        (xy 44.980235 24.676133) (xy 45.429746 24.375779) (xy 45.7301 23.926268) (xy 45.83557 23.396033) (xy 45.83557 22.323967)
        (xy 45.7301 21.793732) (xy 45.678829 21.717) (xy 48.133 21.717) (xy 48.133 25.944311) (xy 48.121145 25.91562)
        (xy 47.746353 25.540174) (xy 47.256413 25.336733) (xy 46.725914 25.33627) (xy 46.23562 25.538855) (xy 45.860174 25.913647)
        (xy 45.656733 26.403587) (xy 45.65627 26.934086) (xy 45.858855 27.42438) (xy 46.233647 27.799826) (xy 46.571448 27.940093)
        (xy 46.23562 28.078855) (xy 45.860174 28.453647) (xy 45.656733 28.943587) (xy 45.65627 29.474086) (xy 45.858855 29.96438)
        (xy 46.233647 30.339826) (xy 46.571448 30.480093) (xy 46.23562 30.618855) (xy 45.860174 30.993647) (xy 45.656733 31.483587)
        (xy 45.65627 32.014086) (xy 45.858855 32.50438) (xy 46.233647 32.879826) (xy 46.571448 33.020093) (xy 46.23562 33.158855)
        (xy 45.860174 33.533647) (xy 45.656733 34.023587) (xy 45.65627 34.554086) (xy 45.858855 35.04438) (xy 46.233647 35.419826)
        (xy 46.723587 35.623267) (xy 47.254086 35.62373) (xy 47.74438 35.421145) (xy 48.119826 35.046353) (xy 48.133 35.014626)
        (xy 48.133 44.958)
      )
    )
  )
)
